…
r_squared = 
  boot_straps |> 
  mutate(
    models = map(strap_sample, weather_lm),
    results = map(models, broom::glance)) |> 
  select(strap_number,results) |> 
  unnest(results)  |> select(strap_number,r.squared)

r_squared
```

    ## # A tibble: 5,000 × 2
    ##    strap_number r.squared
    ##           <int>     <dbl>
    ##  1            1     0.916
    ##  2            2     0.914
    ##  3            3     0.931
    ##  4            4     0.905
    ##  5            5     0.927
    ##  6            6     0.908
    ##  7            7     0.923
    ##  8            8     0.922
    ##  9            9     0.931
    ## 10           10     0.918
    ## # ℹ 4,990 more rows
…
